{
    "debug": true,
    "portal": "lpmobile",
    "serverURL": "",
    "localModelPath": "$(contextRoot)/static/conf/model.json",
    "template": {
        "styles": [],
        "scripts": [],
        "extra-libraries": []
    },
    "behaviourMap": [
        {
            "behaviour": "getStartedClicked",
            "target": "/backbase/overview"
        },
        {
            "behaviour": "versionClicked",
            "target": "/backbase/changelog/version"
        }
    ],
    "syncedPreferences": {
        "versionClicked": ""
    },
    "domainAccess":["*"],
    "pinnedCertificates":[]
}
